Data analysis
…
[1] TRUE

all clean

items <- clean_items
fillers <- clean_fillers

items <- group_by(items, participant, condition)
items

# A tibble: 2,406 × 13
# Groups:   participant, condition [804]
   materials participant is_test_trial  item condition position `question order`
   <chr>     <fct>       <chr>         <dbl> <chr>        <dbl>            <dbl>
 1 AcceptCo… 3           no                1 ATop            43                1
 2 AcceptCo… 3           no                2 ZBott           45                1
 3 AcceptCo… 3           no                3 ZTop            47                1
 4 AcceptCo… 3           no                4 ABott           61                1
 5 AcceptCo… 3           no                5 ATop            55                1
 6 AcceptCo… 3           no                6 ZBott           51                1
 7 AcceptCo… 3           no                7 ZTop            41                1
 8 AcceptCo… 3           no                8 ABott           53                1
 9 AcceptCo… 3           no                9 ATop            63                1
10 AcceptCo… 3           no               10 ZBott           59                1
# ℹ 2,396 more rows
# ℹ 6 more variables: rating1 <dbl>, content <chr>, region_Morava <lgl>,
#   age_under_27 <lgl>, reading_time_over_60_minutes <lgl>, demographic1 <dbl>

summarise(items, mean_cond_accept = mean(rating1))

`summarise()` has grouped output by 'participant'. You can override using the
`.groups` argument.

# A tibble: 804 × 3
# Groups:   participant [82]
   participant condition mean_cond_accept
   <fct>       <chr>                <dbl>
 1 3           ABott                 4.33
 2 3           ATop                  3.67
 3 3           EqA                   1   
 4 3           EqZ                   7   
 5 3           NRA                   3   
 6 3           NRZ                   1   
 7 3           ZBott                 1.33
 8 3           ZTop                  1.33
 9 3           basA                  6.67
10 3           basZ                  5.33
# ℹ 794 more rows
…
